﻿capital = 893
2000.1.1 = {
	if = {
		limit = { has_dlc = "No Step Back" }

		set_oob = "URG_2000_nsb"
		else = {
			set_oob = "URG_2000_nonnsb"
		}
	}
	set_cosmetic_tag = URG
	set_country_flag = dynamic_flag
	set_country_flag = dynamic_rebel_flag
	if = {
		limit = {
			has_dlc = "Man the Guns"
		}
		set_naval_oob = "URG_2000_naval_mtg"
		else = {
			set_naval_oob = "URG_2000_naval_legacy"
		}
	}
	set_convoys = 5

	add_ideas = {

        #GDP

        #Economic Cycle
        depression
        #Corruption
        modest_corruption
        #Faction 1
        small_medium_business_owners
        #Faction 2
        landowners
        #Faction 3
		industrial_conglomerates

        #Bureacracy
        bureau_01
        #Military Spending
        defence_02
        #Internal Security
        police_04
        #Education budget
        edu_02
        #Health budget
        health_04
        #Social spending
        social_05

        #Trade Law
        consumption_economy
        #Conscription Law
        volunteer_army
        #Women in the military
        volunteer_women
        #Foreign Intervention Law

        #Officer Training
        officer_military_school

        #Other
		#rio_pact_member
		christian
		cartels_2

	}

	#Influence system
	init_influence = yes
	set_variable = { domestic_influence_amount = 90 }
	add_to_array = { influence_array = BRA.id }
	add_to_array = { influence_array_val = 40 }
	add_to_array = { influence_array = ARG.id }
	add_to_array = { influence_array_val = 20 }
	add_to_array = { influence_array = USA.id }
	add_to_array = { influence_array_val = 15 }
	add_to_array = { influence_array = CHI.id }
	add_to_array = { influence_array_val = 3 }
	startup_influence = yes

	set_variable = { var = debt value = 28 }
	set_variable = { var = treasury value = 4 }
	set_variable = { var = corporate_tax_rate value = 32 }
	set_variable = { var = population_tax_rate value = 25 }
	set_variable = { var = int_investments value = 0 }



	# Starting tech
	set_technology = {
		integrated_transportation_system = 1
		post_conventional_rail = 1
		early_freight_locomotive = 1

		legacy_doctrines = 1
		infantry_mass_assault = 1
		infantry_weapons = 1
		combat_eng_equipment = 1
		command_control_equipment = 1
		Rec_tank_0 = 1
		Early_APC = 1 #Vehicle Design
		APC_1 = 1
		IFV_1 = 1
		util_vehicle_0 = 1
		artillery_0 = 1
		SP_arty_0 = 1
		Anti_tank_0 = 1
		Heavy_Anti_tank_0 = 1
		Anti_Air_0 = 1
		SP_Anti_Air_0 = 1

		body_armor_1980 = 1

		basic_computing = 1
		integrated_circuit = 1
		computing1 = 1
		decryption1 = 1
		encryption1 = 1

		radar = 1
		internet1 = 1
		fuel_silos = 1

	}
	if = {
		limit = { has_dlc = "No Step Back" }

		set_technology = {
			mbt_tech = 1
		}
	}
	if = {
		limit = { NOT = { has_dlc = "No Step Back" } }

		set_technology = {
			MBT_1 = 1
		}
	}
	if = {
		limit = {
			not = { has_dlc = "Man the Guns" }
		}
		set_technology = {
			frigate_1 = 1
		}
	}
	if = {
		limit = {
			has_dlc = "Man the Guns"
		}
		set_technology = {
			frigate_hull_1 = 1
			tech_mtg_landing_craft = 1
		}
	}
	set_variable = { small_medium_business_owners_opinion = 40 }
	set_variable = { landowners_opinion = 60 }

	set_popularities = {
		democratic = 56.1
		communism = 30.9
		fascism = 0.0
		neutrality = 13.0
		nationalist = 0.0
	}
	set_politics = {
		ruling_party = democratic
		last_election = "1995.3.1"
		election_frequency = 60
		elections_allowed = yes
	}

	start_politics_input = yes

	### Party Popularities
	set_variable = { party_pop_array^0 = 0 } #Western_Autocracy
	set_variable = { party_pop_array^1 = 0 } #conservatism
	set_variable = { party_pop_array^2 = 0.541 } #liberalism
	set_variable = { party_pop_array^3 = 0.02 } #socialism
	set_variable = { party_pop_array^4 = 0.05 } #Communist-State
	set_variable = { party_pop_array^5 = 0.259 } #anarchist_communism
	set_variable = { party_pop_array^6 = 0 } #Conservative
	set_variable = { party_pop_array^7 = 0 } #Autocracy
	set_variable = { party_pop_array^8 = 0 } #Mod_Vilayat_e_Faqih
	set_variable = { party_pop_array^9 = 0 } #Vilayat_e_Faqih
	set_variable = { party_pop_array^10 = 0 } #Kingdom
	set_variable = { party_pop_array^11 = 0 } #Caliphate
	set_variable = { party_pop_array^12 = 0 } #Neutral_Muslim_Brotherhood
	set_variable = { party_pop_array^13 = 0 } #Neutral_Autocracy
	set_variable = { party_pop_array^14 = 0 } #Neutral_conservatism
	set_variable = { party_pop_array^15 = 0 } #oligarchism
	set_variable = { party_pop_array^16 = 0 } #Neutral_Libertarian
	set_variable = { party_pop_array^17 = 0 } #Neutral_green
	set_variable = { party_pop_array^18 = 0.05 } #neutral_Social
	set_variable = { party_pop_array^19 = 0.08 } #Neutral_Communism
	set_variable = { party_pop_array^20 = 0 } #Nat_Populism
	set_variable = { party_pop_array^21 = 0 } #Nat_Fascism
	set_variable = { party_pop_array^22 = 0 } #Nat_Autocracy
	set_variable = { party_pop_array^23 = 0 } #Monarchist

	### Ruling Party
	add_to_array = { ruling_party = 2 }

	startup_politics = yes

	create_country_leader = {
		name = "Jorge Battle"
		picture = "jorge_batlle.dds"
		ideology = liberalism
		traits = {
			western_liberalism
		}
	}

	recruit_character = URG_guido_manini_rios
	recruit_character = URG_washington_roberto_martinez_angelucci
	recruit_character = URG_carlos_humberto_loitey
	recruit_character = URG_luis_abilleira
	recruit_character = URG_jorge_haboosh
	recruit_character = URG_jose_luis_oliveira
	recruit_character = URG_leonardo_gustavo_alfonso_chiappara
	recruit_character = URG_ricardo_giambruno
	recruit_character = URG_alberto_zanelli

	#############################################
	#MTG Variants
	##############
	#if = {
	#	limit = { has_dlc = "Man the Guns" }
	#}
	#############################################
}

2017.1.1 = {
	capital = 893
	if = {
		limit = { has_dlc = "No Step Back" }

		set_oob = "URG_2017_nsb"
		else = {
			set_oob = "URG_2017_nonnsb"
		}
	}
	if = {
		limit = {
			has_dlc = "Man the Guns"
		}
		set_naval_oob = "URG_2017_naval_mtg"
		else = {
			set_naval_oob = "URG_2017_naval_legacy"
		}
	}
	set_convoys = 5

	add_ideas = {
		stable_growth
	}

	set_variable = { small_medium_business_owners_opinion = 40 }
	set_variable = { landowners_opinion = 60 }

	set_variable = { var = debt value = 39 }
	set_variable = { var = treasury value = 13 }
	set_variable = { var = int_investments value = 0 }
	set_variable = { var = corporate_tax_rate value = 25 }
	set_variable = { var = population_tax_rate value = 36 }

	#Nat focus





	# Starting tech
	set_technology = {
		legacy_doctrines = 1
		infantry_mass_assault = 1
		infantry_weapons = 1
		combat_eng_equipment = 1
		command_control_equipment = 1
		Rec_tank_0 = 1
		Early_APC = 1 #Vehicle Design
		APC_1 = 1
		IFV_1 = 1
		util_vehicle_0 = 1
		artillery_0 = 1
		SP_arty_0 = 1
		Anti_tank_0 = 1
		Heavy_Anti_tank_0 = 1
		Anti_Air_0 = 1
		SP_Anti_Air_0 = 1
		early_fighter = 1
		L_Strike_fighter1 = 1

		early_helicopter = 1
		transport_helicopter1 = 1

		body_armor_2000 = 1

		microprocessors = 1
		computing2 = 1
		decryption2 = 1
		encryption2 = 1
		computing3 = 1
		decryption3 = 1
		encryption3 = 1
		computing4 = 1
		decryption4 = 1
		encryption4 = 1
		neural_networks_revival = 1
		data_mining = 1
		industrial_electrospun_polymeric_nanofibers = 1
		stereolitography = 1
		DNA_fingerprinting = 1
		modern_gmo = 1
		gene_therapy = 1

		gprs = 1
		wifi = 1
		internet3 = 1	#3G
		edge = 1
	}
	if = {
		limit = {
			not = { has_dlc = "Man the Guns" }
		}
		set_technology = {
			frigate_1 = 1
		}
	}
	if = {
		limit = {
			has_dlc = "Man the Guns"
		}
		set_technology = {


			tech_mtg_landing_craft = 1
		}
	}
	set_popularities = {
		democratic = 45.4
		communism = 41.6
		fascism = 0.0
		neutrality = 13.0
		nationalist = 0.0
	}
	set_politics = {
		ruling_party = communism
		last_election = "2015.3.1"
		election_frequency = 60
		elections_allowed = yes
	}

	start_politics_input = yes

	### Party Popularities
	set_variable = { party_pop_array^0 = 0 } #Western_Autocracy
	set_variable = { party_pop_array^1 = 0.434 } #conservatism
	set_variable = { party_pop_array^2 = 0 } #liberalism
	set_variable = { party_pop_array^3 = 0.05 } #socialism
	set_variable = { party_pop_array^4 = 0.07 } #Communist-State
	set_variable = { party_pop_array^5 = 0.306 } #anarchist_communism
	set_variable = { party_pop_array^6 = 0 } #Conservative
	set_variable = { party_pop_array^7 = 0 } #Autocracy
	set_variable = { party_pop_array^8 = 0 } #Mod_Vilayat_e_Faqih
	set_variable = { party_pop_array^9 = 0 } #Vilayat_e_Faqih
	set_variable = { party_pop_array^10 = 0 } #Kingdom
	set_variable = { party_pop_array^11 = 0 } #Caliphate
	set_variable = { party_pop_array^12 = 0 } #Neutral_Muslim_Brotherhood
	set_variable = { party_pop_array^13 = 0 } #Neutral_Autocracy
	set_variable = { party_pop_array^14 = 0 } #Neutral_conservatism
	set_variable = { party_pop_array^15 = 0 } #oligarchism
	set_variable = { party_pop_array^16 = 0 } #Neutral_Libertarian
	set_variable = { party_pop_array^17 = 0 } #Neutral_green
	set_variable = { party_pop_array^18 = 0.08 } #neutral_Social
	set_variable = { party_pop_array^19 = 0.06 } #Neutral_Communism
	set_variable = { party_pop_array^20 = 0 } #Nat_Populism
	set_variable = { party_pop_array^21 = 0 } #Nat_Fascism
	set_variable = { party_pop_array^22 = 0 } #Nat_Autocracy
	set_variable = { party_pop_array^23 = 0 } #Monarchist

	### Ruling Party
	add_to_array = { ruling_party = 1 }

	startup_politics = yes

	create_country_leader = {
		name = "Luis Alberto Lacalle Pou"
		picture = "luis_alberto_lacalle_pou.dds"
		ideology = conservatism
		traits = {
			western_conservatism
		}
	}

	retire_character = URG_guido_manini_rios
	retire_character = URG_washington_roberto_martinez_angelucci
	recruit_character = URG_gustavo_fajardo

	#############################################
	#MTG Variants
	##############
	#if = {
	#	limit = { has_dlc = "Man the Guns" }
	#}
	#############################################
}