﻿division_template = {
	name = "Tethorakisméno Tágmatos Ippikoú"

	regiments = {
		Mech_Inf_Bat = { x = 0 y = 0 }
		Mech_Inf_Bat = { x = 0 y = 1 }
		Mech_Inf_Bat = { x = 0 y = 2 }
	}
}

division_template = {
	name = "Taxiarhia Katadromon-Alexiptotiston"

	regiments = {
		L_Air_Inf_Bat = { x = 0 y = 0 }
		L_Air_Inf_Bat = { x = 0 y = 1 }
		Special_Forces = { x = 0 y = 2 }
	}
	priority = 2
}

division_template = {
	name = "Taxiarhia Pezonavton"

	regiments = {
		L_Marine_Bat = { x = 0 y = 0 }
		L_Marine_Bat = { x = 0 y = 1 }
		L_Marine_Bat = { x = 0 y = 2 }
		Arty_Bat = { x = 0 y = 3 }
	}
	support = {
		armor_Comp = { x = 0 y = 0 }
		L_Engi_Comp = { x = 0 y = 1 }
	}
}

division_template = {
	name = "Aerometaforeméni Taxiarhia"

	regiments = {
		L_Air_assault_Bat = { x = 0 y = 0 }
		L_Air_assault_Bat = { x = 0 y = 1 }
		L_Air_assault_Bat = { x = 0 y = 2 }
		Arty_Bat = { x = 0 y = 3 }
	}
	support = {
		L_Engi_Comp = { x = 0 y = 0 }
	}
}

division_template = {
	name = "Tethorakisméni Taxiarhia"

	regiments = {
		armor_Bat = { x = 0 y = 0 }
		armor_Bat = { x = 0 y = 1 }
		Arm_Inf_Bat = { x = 0 y = 2 }
		SP_Arty_Bat = { x = 0 y = 3 }
	}
	support = {
		H_Engi_Comp = { x = 0 y = 0 }
	}
}

division_template = {
	name = "Michanokíniti Taxiarhia"

	regiments = {
		armor_Bat = { x = 0 y = 0 }
		Mech_Inf_Bat = { x = 0 y = 1 }
		Mech_Inf_Bat = { x = 0 y = 2 }
		SP_Arty_Bat = { x = 0 y = 3 }
	}
	support = {
		H_Engi_Comp = { x = 0 y = 0 }
	}
}

division_template = {
	name = "Michanopoiiméni Taxiarhia Pezikoú"

	regiments = {
		Mot_Inf_Bat = { x = 0 y = 0 }
		Mot_Inf_Bat = { x = 0 y = 1 }
		Mot_Inf_Bat = { x = 0 y = 2 }
	}
	support = {
		L_Engi_Comp = { x = 0 y = 0 }
		Arty_Battery = { x = 0 y = 1 }
	}
}

division_template = {
	name = "Anotéra Dioíkisi Tagmáton Ethnofylakís"

	regiments = {
		armor_Bat = { x = 0 y = 0 }
		Mech_Inf_Bat = { x = 1 y = 0 }
		Mech_Inf_Bat = { x = 1 y = 1 }
		Mech_Inf_Bat = { x = 1 y = 2 }
		Mot_Inf_Bat = { x = 2 y = 0 }
		Arty_Bat = { x = 2 y = 1 }
	}
	support = {
		H_Engi_Comp = { x = 0 y = 0 }
		Mech_Recce_Comp = { x = 0 y = 1 }
	}

	priority = 0
}

units = {
	#First Army
	division = {
		name = "1 Thorakisméno Tágmatos Ippikoú"
		location = 863		#Larisa
		division_template = "Tethorakisméno Tágmatos Ippikoú"
		start_experience_factor = 0.65
		start_equipment_factor = 0.01
	}
	##1st Infantry Division
	division = {
		name = "1 Taxiarhia Katadromon-Alexiptotiston"
		location = 895		#Rentina
		division_template = "Taxiarhia Katadromon-Alexiptotiston"
		start_experience_factor = 0.9
		start_equipment_factor = 0.01
	}
	division = {
		name = "32 Taxiarhia Pezonavton 'Moravas'"
		location = 3973		#Volos
		division_template = "Taxiarhia Pezonavton"
		start_experience_factor = 0.65
		start_equipment_factor = 0.01
	}
	division = {
		name = "71 Aerometaforeméni Taxiarhia 'Pontos'"
		location = 11818		#Nea Santa
		division_template = "Aerometaforeméni Taxiarhia"
		start_experience_factor = 0.65
		start_equipment_factor = 0.01
	}
	##2nd Mechanised Infantry Division
	division = {
		name = "24 Tethorakisméni Taxiarhia '1o Si Florina'"
		location = 3844		#Litochoro
		division_template = "Tethorakisméni Taxiarhia"
		start_experience_factor = 0.65
		start_equipment_factor = 0.01
	}
	division = {
		name = "33 Michanokíniti Taxiarhia 'Sýntagma Kydóniai'"
		location = 3526		#Polykastro
		division_template = "Michanokíniti Taxiarhia"
		start_experience_factor = 0.65
		start_equipment_factor = 0.01
	}
	division = {
		name = "34 Michanokíniti Taxiarhia 'Apóspasma Schoú Dialéti'"
		location = 11818		#Assiros
		division_template = "Michanokíniti Taxiarhia"
		start_experience_factor = 0.65
		start_equipment_factor = 0.01
	}
	##IV Corps
	division = {
		name = "50 Michanokíniti Taxiarhia 'Apsos'"
		location = 11905		#Soufli
		division_template = "Michanokíniti Taxiarhia"
		start_experience_factor = 0.65
		start_equipment_factor = 0.01
	}
	division = {
		name = "29 Michanokíniti Taxiarhia 'Pogradec'"
		location = 11774		#Komotini
		division_template = "Michanokíniti Taxiarhia"
		start_experience_factor = 0.65
		start_equipment_factor = 0.01
	}
	###12th Mechanised Infantry Division
	division = {
		name = "7 Michanokíniti Taxiarhia 'Sarantaporos'"
		location = 11905		#Lykofos
		division_template = "Michanokíniti Taxiarhia"
		start_experience_factor = 0.65
		start_equipment_factor = 0.01
	}
	division = {
		name = "31 Michanokíniti Taxiarhia 'Kamia'"
		location = 11905		#Feres
		division_template = "Michanokíniti Taxiarhia"
		start_experience_factor = 0.65
		start_equipment_factor = 0.01
	}
	###16th Mechanised Infantry Division
	division = {
		name = "3 Michanokíniti Taxiarhia 'Rimini'"
		location = 11905		#Orestiada
		division_template = "Michanokíniti Taxiarhia"
		start_experience_factor = 0.65
		start_equipment_factor = 0.01
	}
	division = {
		name = "30 Michanokíniti Taxiarhia 'Tomoritsa'"
		location = 11905		#Lagos
		division_template = "Michanokíniti Taxiarhia"
		start_experience_factor = 0.65
		start_equipment_factor = 0.01
	}
	###20th Armoured Division
	division = {
		name = "21 Tethorakisméni Taxiarhia 'Pindus'"
		location = 11774		#Komotini
		division_template = "Tethorakisméni Taxiarhia"
		start_experience_factor = 0.65
		start_equipment_factor = 0.01
	}
	division = {
		name = "23 Tethorakisméni Taxiarhia '3o Sýntagma Ippikoú Dorylaíon'"
		location = 11905		#Alexandroupoli
		division_template = "Tethorakisméni Taxiarhia"
		start_experience_factor = 0.65
		start_equipment_factor = 0.01
	}
	division = {
		name = "25 Tethorakisméni Taxiarhia '2o Sýntagma Ippikoú Éfessos'"
		location = 9791		#Xanthi
		division_template = "Tethorakisméni Taxiarhia"
		start_experience_factor = 0.65
		start_equipment_factor = 0.01
	}
	#III Corps
	division = {
		name = "8i Michanopoiiméni Taxiarhia Pezikoú"
		location = 3914		#Ioannina
		division_template = "Michanopoiiméni Taxiarhia Pezikoú"
		start_experience_factor = 0.65
		start_equipment_factor = 0.01
	}
	division = {
		name = "9i Michanopoiiméni Taxiarhia Pezikoú 'Adrianoúpoli'"
		location = 966		#Kozani
		division_template = "Michanopoiiméni Taxiarhia Pezikoú"
		start_experience_factor = 0.65
		start_equipment_factor = 0.01
	}
	division = {
		name = "10o Sýntagma Pezikoú"
		location = 472		#Serres
		division_template = "Michanopoiiméni Taxiarhia Pezikoú"
		start_experience_factor = 0.65
		start_equipment_factor = 0.01
	}
	division = {
		name = "15o Sýntagma Pezikoú"
		location = 9837		#Kastoria
		division_template = "Michanopoiiméni Taxiarhia Pezikoú"
		start_experience_factor = 0.65
		start_equipment_factor = 0.01
	}
	#ASDEN
	division = {
		name = "5i Aerometaferómeni Taxiarhia Pezikoú 'I Merarchía Kritón'"
		location = 12058		#Chania
		division_template = "Aerometaforeméni Taxiarhia"
		start_experience_factor = 0.65
		start_equipment_factor = 0.01
	}
	division = {
		name = "79i Anotéra Dioíkisi Tagmáton Ethnofylakís"
		location = 6550		#Samos
		division_template = "Anotéra Dioíkisi Tagmáton Ethnofylakís"
		start_experience_factor = 0.65
		start_equipment_factor = 0.01
	}
	division = {
		name = "80i Anotéra Dioíkisi Tagmáton Ethnofylakís"
		location = 7003		#Kos
		division_template = "Anotéra Dioíkisi Tagmáton Ethnofylakís"
		start_experience_factor = 0.65
		start_equipment_factor = 0.01
	}
	division = {
		name = "88i Stratiotikí Dioíkisi"
		location = 426		#Myrina
		division_template = "Anotéra Dioíkisi Tagmáton Ethnofylakís"
		start_experience_factor = 0.65
		start_equipment_factor = 0.01
	}
	division = {
		name = "95i Anotéra Dioíkisi Tagmáton Ethnofylakís"
		location = 10007		#Rhodes
		division_template = "Anotéra Dioíkisi Tagmáton Ethnofylakís"
		start_experience_factor = 0.65
		start_equipment_factor = 0.01
	}
	division = {
		name = "96i Anotéra Dioíkisi Tagmáton Ethnofylakís"
		location = 6550		#Chios
		division_template = "Anotéra Dioíkisi Tagmáton Ethnofylakís"
		start_experience_factor = 0.65
		start_equipment_factor = 0.01
	}
	division = {
		name = "98i Anotéra Dioíkisi Tagmáton Ethnofylakís"
		location = 8435		#Lesbos
		division_template = "Anotéra Dioíkisi Tagmáton Ethnofylakís"
		start_experience_factor = 0.65
		start_equipment_factor = 0.01
	}
}

instant_effect = {
	add_equipment_to_stockpile = {
		type = command_control_equipment
		amount = 2000
		producer = GRE
	}

	add_equipment_to_stockpile = {
		type = infantry_weapons #G3	(made by license)
		amount = 13000
		producer = GRE
	}

	add_equipment_to_stockpile = {
		type = infantry_weapons2 #M16A2
		amount = 200
		producer = USA
	}

	add_equipment_to_stockpile = {
		type = infantry_weapons4 #M4
		amount = 200
		producer = USA
	}

	add_equipment_to_stockpile = {
		type = Heavy_Anti_tank_2	 #Kornet
		amount = 196
		producer = SOV
	}

	add_equipment_to_stockpile = {
		type = Heavy_Anti_tank_1	 #TOW-2
		amount = 366
		producer = USA
	}

	add_equipment_to_stockpile = {
		type = Anti_tank_1	 #MILAN
		amount = 400
		producer = FRA
	}

	add_equipment_to_stockpile = {
		type = Anti_tank_1	 #Fagot
		amount = 262
		producer = SOV
	}

	add_equipment_to_stockpile = {
		type = MBT_4	 #Leopard 2A6
		#version_name = "Leopard 2A6"
		amount = 170
		producer = GER
	}

	add_equipment_to_stockpile = {
		type = MBT_4	 #Leopard 2A4
		amount = 183
		producer = GER
	}

	add_equipment_to_stockpile = {
		type = MBT_2	 #Leopard 1
		amount = 501
		producer = GER
	}

	add_equipment_to_stockpile = {
		type = MBT_1	 #M48A5 MOLF
		#version_name = "M48A5"
		amount = 390
		producer = USA
	}

	add_equipment_to_stockpile = {
		type = MBT_1	 #M60A3
		#version_name = "M60A3"
		amount = 101
		producer = USA
	}

	add_equipment_to_stockpile = {
		type = APC_3	 #Leonidas II
		amount = 491
		producer = GRE
	}

	add_equipment_to_stockpile = {
		type = APC_2	 #M113
		amount = 1985
		producer = USA
	}

	add_equipment_to_stockpile = {
		type = util_vehicle_3	 #VBL
		amount = 242
		producer = FRA
	}

	add_equipment_to_stockpile = {
		type = util_vehicle_2	 #Humvee
		amount = 695
		producer = USA
	}

	add_equipment_to_stockpile = {
		type = util_vehicle_1	 #Mercedes-Benz G-Class
		amount = 8300
		producer = GER
	}

	add_equipment_to_stockpile = {
		type = SP_R_arty_1	 #M270 MLRS
		amount = 36
		producer = USA
	}

	add_equipment_to_stockpile = {
		type = SP_R_arty_1	 #RM70
		amount = 116
		producer = CZE
	}

	add_equipment_to_stockpile = {
		type = SP_arty_0	 #M109
		amount = 51
		producer = USA
	}

	add_equipment_to_stockpile = {
		type = SP_arty_1	 #M109A2
		amount = 82
		producer = USA
	}

	add_equipment_to_stockpile = {
		type = SP_arty_1	 #M109A3
		#version_name = "M109A3"
		amount = 273
		producer = USA
	}

	add_equipment_to_stockpile = {
		type = SP_arty_1	 #M109A5
		#version_name = "M109A5"
		amount = 12
		producer = USA
	}

	add_equipment_to_stockpile = {
		type = SP_arty_2	 #PzH 2000
		amount = 25
		producer = GER
	}

	add_equipment_to_stockpile = {
		type = artillery_0	 #M101
		#version_name = "M101"
		amount = 25
		producer = USA
	}

	add_equipment_to_stockpile = {
		type = artillery_0	 #OTO-Melara Mod 56
		amount = 18
		producer = ITA
	}

	add_equipment_to_stockpile = {
		type = SP_Anti_Air_0	 #SA-8 Osa
		amount = 39
		producer = SOV
	}

	add_equipment_to_stockpile = {
		type = Anti_Air_1	 #Stinger
		amount = 700
		producer = USA
	}

	add_equipment_to_stockpile = {
		type = attack_helicopter2	#AH-64A
		amount = 19
		producer = USA
	}

	add_equipment_to_stockpile = {
		type = attack_helicopter3	#AH-64D
		amount = 9
		producer = USA
	}

	add_equipment_to_stockpile = {
		type = transport_helicopter1		#Chinook
		amount = 25
		producer = USA
	}

	add_equipment_to_stockpile = {
		type = transport_helicopter4		#NH90
		amount = 20
		producer = FRA
	}

	add_equipment_to_stockpile = {
		type = transport_helicopter1		#Super Puma
		amount = 20
		producer = FRA
	}

	add_equipment_to_stockpile = {
		type = transport_plane3		#C-27 Spartan
		amount = 8
		producer = ITA
	}

	add_equipment_to_stockpile = {
		type = transport_plane1		#C-130 Hercules
		amount = 15
		producer = USA
	}

	add_equipment_to_stockpile = {
		type = AS_Fighter1		#F-4 Phantom II
		amount = 34
		producer = USA
	}

	add_equipment_to_stockpile = {
		type = MR_Fighter3		#F-16C Fighting Falcon
		amount = 155
		producer = USA
	}

	add_equipment_to_stockpile = {
		type = MR_Fighter2		#Mirage 2000
		amount = 44
		producer = FRA
	}

	if = {
		limit = { NOT = { has_dlc = "Man the Guns" } }
		if = {
			limit = { has_dlc = "Death or Dishonor" }
			GER = {
				create_production_license = {
					target = GRE
					equipment = {
						type = diesel_attack_submarine_2			#Type 209-Class
					}
					cost_factor = 0
				}
			}
			else = {
				add_equipment_production = {
					equipment = {
						type = diesel_attack_submarine_2
						version_name = "Type 209-Class"
						creator = "GER"
					}
					requested_factories = 1
					progress = 0.2
					efficiency = 50
				}
			}
		}

		if = {
			limit = { has_dlc = "Death or Dishonor" }
			GER = {
				create_production_license = {
					target = GRE
					equipment = {
						type = diesel_attack_submarine_4			#Type 214-Class
					}
					cost_factor = 0
				}
			}
			else = {
				add_equipment_production = {
					equipment = {
						type = diesel_attack_submarine_4
						version_name = "Type 214-Class"
						creator = "GER"
					}
					requested_factories = 1
					progress = 0.2
					efficiency = 50
				}
			}
		}

		if = {
			limit = { has_dlc = "Death or Dishonor" }
			HOL = {
				create_production_license = {
					target = GRE
					equipment = {
						type = frigate_2			#Kortenaer-Class
					}
					cost_factor = 0
				}
			}
			else = {
				add_equipment_production = {
					equipment = {
						type = frigate_2
						creator = "HOL"
					}
					requested_factories = 1
					progress = 0.2
					efficiency = 50
				}
			}
		}

		if = {
			limit = { has_dlc = "Death or Dishonor" }
			GER = {
				create_production_license = {
					target = GRE
					equipment = {
						type = missile_frigate_1			#MEKO A-200AN-Class
					}
					cost_factor = 0
				}
			}
			else = {
				add_equipment_production = {
					equipment = {
						type = missile_frigate_1
						version_name = "MEKO A-200AN-Class"
						creator = "GER"
					}
					requested_factories = 1
					progress = 0.2
					efficiency = 50
				}
			}
		}
	}
}