﻿division_template = {
	name = "Hativa Sheva"			#Armoured Brigade

	regiments = {
		armor_Bat = { x = 0 y = 0 }
		armor_Bat = { x = 0 y = 1 }
		armor_Bat = { x = 0 y = 2 }
		Mech_Inf_Bat = { x = 0 y = 3 }
		SP_Arty_Bat = { x = 0 y = 4 }
	}

	support = {
		Arm_Recce_Comp = { x = 0 y = 0 }
	}
}

division_template = {
	name = "Infantry Brigade"			#Infantry Brigade

	regiments = {
		Arm_Inf_Bat = { x = 0 y = 0 }
		Mech_Inf_Bat = { x = 0 y = 1 }
		Mech_Inf_Bat = { x = 0 y = 2 }
		SP_Arty_Bat = { x = 0 y = 3 }
	}

	support = {
		Mot_Recce_Comp = { x = 0 y = 0 }
		L_Engi_Comp = { x = 0 y = 1 }
	}
}

division_template = {
	name = "Hativat HaTzanhanim"			#Paratrooper Brigade

	regiments = {
		Mot_Air_Inf_Bat = { x = 0 y = 0 }
		Mot_Air_Inf_Bat = { x = 0 y = 1 }
		Mot_Air_Inf_Bat = { x = 0 y = 2 }
	}

	support = {
		Mot_Recce_Comp = { x = 0 y = 0 }
		L_Engi_Comp = { x = 0 y = 1 }
	}
}

division_template = {
	name = "Hativat Commando"			#Commando Brigade

	regiments = {
		Special_Forces = { x = 0 y = 0 }
		Special_Forces = { x = 0 y = 1 }
		Special_Forces = { x = 0 y = 2 }
		Special_Forces = { x = 0 y = 3 }
	}
	priority = 2
}

division_template = {
	name = "Reserve Hativat HaTzanhanim"			#Reserve Paratrooper Brigade

	regiments = {
		L_Air_Inf_Bat = { x = 0 y = 0 }
		L_Air_Inf_Bat = { x = 0 y = 1 }
		L_Air_Inf_Bat = { x = 0 y = 2 }
	}

	support = {
		L_Recce_Comp = { x = 0 y = 0 }
		L_Engi_Comp = { x = 0 y = 1 }
	}

	priority = 0
}

division_template = {
	name = "Reserve Infantry Brigade"			#Reserve Infantry Brigade

	regiments = {
		Mech_Inf_Bat = { x = 0 y = 0 }
		Mot_Inf_Bat = { x = 0 y = 1 }
		Mot_Inf_Bat = { x = 0 y = 2 }
		Arty_Bat = { x = 0 y = 3 }
	}

	support = {
		Mot_Recce_Comp = { x = 0 y = 0 }
		L_Engi_Comp = { x = 0 y = 1 }
	}

	priority = 0
}

division_template = {
	name = "Territorial Infantry Brigade"			#Territorial Infantry Brigade

	regiments = {
		L_Inf_Bat = { x = 0 y = 0 }
		L_Inf_Bat = { x = 0 y = 1 }
		L_Inf_Bat = { x = 0 y = 2 }
		L_Inf_Bat = { x = 1 y = 0 }
		L_Inf_Bat = { x = 1 y = 1 }
		L_Inf_Bat = { x = 1 y = 2 }
		L_Inf_Bat = { x = 2 y = 0 }
		L_Inf_Bat = { x = 2 y = 1 }
		L_Inf_Bat = { x = 2 y = 2 }

	}
	priority = 0
}

division_template = {
	name = "Reserve Hativa Sheva"			#Reserve Armoured Brigade

	regiments = {
		armor_Bat = { x = 0 y = 0 }
		armor_Bat = { x = 0 y = 1 }
		armor_Bat = { x = 0 y = 2 }
		Mech_Inf_Bat = { x = 0 y = 3 }
		Arty_Bat = { x = 0 y = 4 }
	}

	support = {
		Mech_Recce_Comp = { x = 0 y = 0 }
	}

	priority = 0
}

units = {

	#Northern Command
	##36th Armor Division
	division = {
		name = "7 Hativa Sheva 'Saar me-Golan'"
		location = 13205			#Golan heights
		division_template = "Hativa Sheva"
		start_experience_factor = 0.75
		start_equipment_factor = 0.01
	}
	division = {
		name = "188 Hativa Sheva 'Barak'"
		location = 13205			#Golan heights
		division_template = "Hativa Sheva"
		start_experience_factor = 0.75
		start_equipment_factor = 0.01
	}
	division = {
		name = "1 Infantry Brigade 'Golani'"
		location = 13205			#Golan heights
		division_template = "Infantry Brigade"
		start_experience_factor = 0.75
		start_equipment_factor = 0.01
	}
	division = {
		name = "6 (Reserve) Infantry Brigade 'Etzioni'"
		location = 13205			#Golan heights
		division_template = "Reserve Infantry Brigade"
		start_experience_factor = 0.65
		start_equipment_factor = 0.01
	}
	division = {
		name = "263 (Reserve) Hativa Sheva 'Merkavot ha-Esh'"
		location = 13205			#Golan heights
		division_template = "Reserve Hativa Sheva"
		start_experience_factor = 0.65
		start_equipment_factor = 0.01
	}

	##91st Territorial Division
	division = {
		name = "3 (Reserve) Infantry Brigade 'Alexandroni'"
		location = 1065			#Lebanese Border
		division_template = "Reserve Infantry Brigade"
		start_experience_factor = 0.65
		start_equipment_factor = 0.01
	}
	division = {
		name = "8 (Reserve) Hativa Sheva 'Old Man'"
		location = 1065			#Lebanese Border
		division_template = "Reserve Hativa Sheva"
		start_experience_factor = 0.65
		start_equipment_factor = 0.01
	}

	##210th Territorial Division
	division = {
		name = "11 (Reserve) Infantry Brigade 'Yiftah'"
		location = 13205			#Syrian Border
		division_template = "Reserve Infantry Brigade"
		start_experience_factor = 0.65
		start_equipment_factor = 0.01
	}
	division = {
		name = "679 (Reserve) Hativa Sheva 'Yiftah'"
		location = 13205			#Syrian Border
		division_template = "Reserve Hativa Sheva"
		start_experience_factor = 0.65
		start_equipment_factor = 0.01
	}

	##319th Territorial Division
	division = {
		name = "4 (Reserve) Hativa Sheva 'Kiryati'"
		location = 1065			#North Patrol
		division_template = "Reserve Hativa Sheva"
		start_experience_factor = 0.65
		start_equipment_factor = 0.01
	}
	division = {
		name = "2 (Reserve) Infantry Brigade 'Carmeli'"
		location = 1065			#Carmel Mountains
		division_template = "Reserve Infantry Brigade"
		start_experience_factor = 0.65
		start_equipment_factor = 0.01
	}
	division = {
		name = "228 (Reserve) Infantry Brigade 'Alon'"
		location = 12839			#
		division_template = "Reserve Infantry Brigade"
		start_experience_factor = 0.65
		start_equipment_factor = 0.01
	}
	division = {
		name = "205 (Reserve) Hativa Sheva 'Iron Fist'"
		location = 12839			#
		division_template = "Reserve Hativa Sheva"
		start_experience_factor = 0.65
		start_equipment_factor = 0.01
	}
	division = {
		name = "226 (Reserve) Hativat HaTzanhanim 'Eagle'"
		location = 1015			#South training
		division_template = "Reserve Hativat HaTzanhanim"
		start_experience_factor = 0.65
		start_equipment_factor = 0.01
	}

	#Central Command
	##98th Paratroopers Division
	division = {
		name = "35 Hativat HaTzanhanim 'Flying Serpent'"
		location = 4206			#Air Commando
		division_template = "Hativat HaTzanhanim"
		start_experience_factor = 0.75
		start_equipment_factor = 0.01
	}
	division = {
		name = "55 (Reserve) Hativat HaTzanhanim 'Hod Ha-Hanit'"
		location = 4206			#Front line paratroopers
		division_template = "Reserve Hativat HaTzanhanim"
		start_experience_factor = 0.65
		start_equipment_factor = 0.01
	}
	division = {
		name = "551 (Reserve) Hativat HaTzanhanim 'Hetzei Ha-Esh'"
		location = 1086			#Jerusalem
		division_template = "Reserve Hativat HaTzanhanim"
		start_experience_factor = 0.65
		start_equipment_factor = 0.01
	}
	division = {
		name = "89 Hativat Commando 'Oz'"
		location = 4206			#
		division_template = "Hativat Commando"
		start_experience_factor = 0.9
		start_equipment_factor = 0.01
	}

	##340th Armoured Division
	division = {
		name = "847 (Reserve) Hativa Sheva 'Chariots of Steel'"
		location = 1086			#
		division_template = "Reserve Hativa Sheva"
		start_experience_factor = 0.65
		start_equipment_factor = 0.01
	}
	division = {
		name = "5 (Reserve) Infantry Brigade 'Sharon'"
		location = 1086			#Area of the Sharon Strip
		division_template = "Reserve Infantry Brigade"
		start_experience_factor = 0.65
		start_equipment_factor = 0.01
	}
	division = {
		name = "16 (Reserve) Infantry Brigade 'Jerusalem'"
		location = 1086			#
		division_template = "Reserve Infantry Brigade"
		start_experience_factor = 0.65
		start_equipment_factor = 0.01
	}
	division = {
		name = "900 Infantry Brigade 'Kfir'"
		location = 1086			#
		division_template = "Infantry Brigade"
		start_experience_factor = 0.75
		start_equipment_factor = 0.01
	}

	##877th Territorial Division
	division = {
		name = "417 (Territorial) Infantry Brigade 'Jordan Valley'"
		location = 12839			#North-East
		division_template = "Territorial Infantry Brigade"
		start_experience_factor = 0.65
		start_equipment_factor = 0.01
	}

	#Southern Command
	##80th Territorial Division
	division = {
		name = "406 (Territorial) Infantry Brigade 'Yoav'"
		location = 7176			#
		division_template = "Territorial Infantry Brigade"
		start_experience_factor = 0.65
		start_equipment_factor = 0.01
	}

	##143rd Territorial Division
	division = {
		name = "(Territorial) Infantry Brigade 'Gefen'"
		location = 4088			#Gaza
		division_template = "Territorial Infantry Brigade"
		start_experience_factor = 0.65
		start_equipment_factor = 0.01
	}
	division = {
		name = "(Territorial) Infantry Brigade 'Katif'"
		location = 4088			#Gaza
		division_template = "Territorial Infantry Brigade"
		start_experience_factor = 0.65
		start_equipment_factor = 0.01
	}

	##162nd Armoured Division
	division = {
		name = "37 (Reserve) Hativa Sheva 'Ram'"
		location = 1015			#
		division_template = "Reserve Hativa Sheva"
		start_experience_factor = 0.65
		start_equipment_factor = 0.01
	}
	division = {
		name = "401 Hativa Sheva 'Ikvot HaBarzel'"
		location = 1015			#
		division_template = "Hativa Sheva"
		start_experience_factor = 0.75
		start_equipment_factor = 0.01
	}
	division = {
		name = "84 Infantry Brigade 'Giv'ati'"
		location = 13205			#Far north
		division_template = "Infantry Brigade"
		start_experience_factor = 0.75
		start_equipment_factor = 0.01
	}
	division = {
		name = "933 Infantry Brigade 'Nahal'"
		location = 1015			#Sea unit
		division_template = "Infantry Brigade"
		start_experience_factor = 0.75
		start_equipment_factor = 0.01
	}

	##252nd Armoured Division
	division = {
		name = "10 (Reserve) Hativa Sheva 'Harel'"
		location = 11970			#Egyptian Border
		division_template = "Reserve Hativa Sheva"
		start_experience_factor = 0.65
		start_equipment_factor = 0.01
	}
	division = {
		name = "14 (Reserve) Hativa Sheva 'Macvhatz'"
		location = 11970			#Egyptian Border
		division_template = "Reserve Hativa Sheva"
		start_experience_factor = 0.65
		start_equipment_factor = 0.01
	}
	division = {
		name = "12 (Reserve) Infantry Brigade 'Negev'"
		location = 11970			#
		division_template = "Reserve Infantry Brigade"
		start_experience_factor = 0.65
		start_equipment_factor = 0.01
	}
	division = {
		name = "646 (Reserve) Hativat HaTzanhanim 'Skyfox'"
		location = 11970			#
		division_template = "Reserve Hativat HaTzanhanim"
		start_experience_factor = 0.65
		start_equipment_factor = 0.01
	}
}

instant_effect = {
	add_equipment_to_stockpile = {
		type = command_control_equipment4
		amount = 3500
		producer = ISR
	}
	add_equipment_to_stockpile = {
		type = infantry_weapons5			#MTAR-21
		amount = 11000
		producer = ISR
	}
	add_equipment_to_stockpile = {
		type = infantry_weapons4			#TAR-21
		amount = 6000
		producer = ISR
	}
	add_equipment_to_stockpile = {
		type = infantry_weapons1			#IMI Galil
		amount = 1000
		producer = ISR
	}
	add_equipment_to_stockpile = {
		type = infantry_weapons1			#M16
		amount = 1000
		producer = USA
	}
	add_equipment_to_stockpile = {
		type = infantry_weapons3			#CAR-15
		amount = 1000
		producer = ISR
	}
	add_equipment_to_stockpile = {
		type = infantry_weapons4			#M4
		amount = 1000
		producer = USA
	}
	add_equipment_to_stockpile = {
		type = infantry_weapons			#TAR-21
		amount = 1000
		producer = SOV
	}
	add_equipment_to_stockpile = {
		type = Heavy_Anti_tank_1			#TOW
		amount = 100
		producer = USA
	}
	add_equipment_to_stockpile = {
		type = Heavy_Anti_tank_1			#MAPATS
		amount = 100
		producer = ISR
	}
	add_equipment_to_stockpile = {
		type = Heavy_Anti_tank_2			#Spike
		amount = 500
		producer = ISR
	}
	add_equipment_to_stockpile = {
		type = Anti_tank_0			#M47 Dragon
		amount = 200
		producer = USA
	}
	add_equipment_to_stockpile = {
		type = Anti_tank_2			#Spike
		amount = 1000
		producer = ISR
	}
	add_equipment_to_stockpile = {
		type = SP_Anti_Air_2			#Iron Dome
		#version_name = "Iron Dome"
		amount = 10
		producer = ISR
	}
	add_equipment_to_stockpile = {
		type = Anti_Air_1			#Stinger
		amount = 1000
		producer = USA
	}
	add_equipment_to_stockpile = {
		type = MBT_3			#Merkava II
		amount = 370
		producer = ISR
	}
	add_equipment_to_stockpile = {
		type = MBT_4			#Merkava III
		amount = 730
		producer = ISR
	}
	add_equipment_to_stockpile = {
		type = MBT_4			#Merkava IV, was mbt_5
		amount = 460
		producer = ISR
	}
	add_equipment_to_stockpile = {
		type = APC_2			#M113
		amount = 6131
		producer = USA
	}
	add_equipment_to_stockpile = {
		type = IFV_3			#Achazrit
		amount = 215
		producer = ISR
	}
	add_equipment_to_stockpile = {
		type = IFV_4			#Nagmachon
		amount = 200
		producer = ISR
	}
	add_equipment_to_stockpile = {
		type = IFV_4			#Nakpadon
		#version_name = "Nakpadon"
		amount = 200
		producer = ISR
	}
	add_equipment_to_stockpile = {
		type = IFV_5			#Namer
		amount = 120
		producer = ISR
	}
	add_equipment_to_stockpile = {
		type = util_vehicle_0			#AIL Abir
		amount = 1000
		producer = ISR
	}
	add_equipment_to_stockpile = {
		type = util_vehicle_2			#AIL Storm
		amount = 300
		producer = ISR
	}
	add_equipment_to_stockpile = {
		type = util_vehicle_2			#Humvee
		amount = 2000
		producer = USA
	}
	add_equipment_to_stockpile = {
		type = util_vehicle_3			#AIL Storm II
		amount = 400
		producer = ISR
	}
	add_equipment_to_stockpile = {
		type = util_vehicle_4			#Wolf
		#version_name = "Wolf Armoured Vehicle"
		amount = 300
		producer = ISR
	}
	add_equipment_to_stockpile = {
		type = util_vehicle_4			#Sand Cat
		amount = 79
		producer = ISR
	}
	add_equipment_to_stockpile = {
		type = util_vehicle_2			#Otokar Akrep
		amount = 30
		producer = TUR
	}
	add_equipment_to_stockpile = {
		type = SP_arty_0			#Ro'em L-33
		amount = 50
		producer = ISR
	}
	add_equipment_to_stockpile = {
		type = SP_arty_1			#M109A5
		#version_name = "M109A5"
		amount = 600
		producer = USA
	}
	add_equipment_to_stockpile = {
		type = SP_R_arty_1			#M270
		amount = 48
		producer = USA
	}
	add_equipment_to_stockpile = {
		type = SP_R_arty_1			#LAR-160
		amount = 50
		producer = ISR
	}
	add_equipment_to_stockpile = {
		type = artillery_1			#Soltam M71
		amount = 350
		producer = ISR
	}
	add_equipment_to_stockpile = {
		type = MR_Fighter2			#F-16A/B
		amount = 107
		producer = USA
	}
	add_equipment_to_stockpile = {
		type = MR_Fighter3			#F-16C/D + Sufa
		amount = 236
		producer = USA
	}
	add_equipment_to_stockpile = {
		type = MR_Fighter4			#F-35
		amount = 5
		producer = USA
	}
	add_equipment_to_stockpile = {
		type = AS_Fighter2			#F-15A
		amount = 16
		producer = USA
	}
	add_equipment_to_stockpile = {
		type = AS_Fighter3			#F-15C
		amount = 17
		producer = USA
	}
	add_equipment_to_stockpile = {
		type = Strike_fighter3			#F-15E
		amount = 25
		producer = USA
	}
	add_equipment_to_stockpile = {
		type = transport_plane1			#C-130
		amount = 12
		producer = USA
	}
	add_equipment_to_stockpile = {
		type = transport_plane3			#C-130J
		amount = 4
		producer = USA
	}
	add_equipment_to_stockpile = {
		type = attack_helicopter1			#AH-1 Cobra
		amount = 49
		producer = USA
	}
	add_equipment_to_stockpile = {
		type = attack_helicopter2			#Eurocopter Panther
		amount = 7
		producer = FRA
	}
	add_equipment_to_stockpile = {
		type = attack_helicopter2			#AH-64
		amount = 30
		producer = USA
	}
	add_equipment_to_stockpile = {
		type = attack_helicopter3			#AH-64D
		amount = 22
		producer = USA
	}
	add_equipment_to_stockpile = {
		type = transport_helicopter1			#Sea Stallion
		#version_name = "Sikorsky CH-53 Sea Stallion"
		amount = 37
		producer = USA
	}
	add_equipment_to_stockpile = {
		type = transport_helicopter1			#Bell 206
		#version_name = "Bell 206"
		amount = 18
		producer = USA
	}
	add_equipment_to_stockpile = {
		type = transport_helicopter2			#Black Hawk
		amount = 49
		producer = USA
	}
	add_equipment_to_stockpile = {
		type = Air_UAV1			#IAI Heron
		amount = 5
		producer = ISR
	}
	add_equipment_to_stockpile = {
		type = Air_UAV2			#IAI Hermes
		amount = 5
		producer = ISR
	}
	add_equipment_to_stockpile = {
		type =  cv_awacs_equipment_1 #E-2 Hawkeye
		amount = 1
		producer = USA
	}
	add_equipment_to_stockpile = {
		type =  awacs_equipment_2 #EL/M-2075 Phalcon
		amount = 2
		producer = ISR
	}

	###Domestic Production###
	add_equipment_production = {
		equipment = {
			type = MBT_5 #Merkava IV
		}
		requested_factories = 1
		progress = 0.1
		efficiency = 50
	}
	add_equipment_production = {
		equipment = {
			type = IFV_5 #Namer
		}
		requested_factories = 1
		progress = 0.1
		efficiency = 50
	}
	if = {
		limit = { has_dlc = "Death or Dishonor" }
		GER = {
			if = {
				limit = { NOT = { has_dlc = "Man the Guns" } }
				create_production_license = {
					target = ISR
					equipment = {
						type = diesel_attack_submarine_3 #Dolphin II-class
					}
					cost_factor = 0
				}
			}
			else = {
				create_production_license = {
					target = ISR
					equipment = {
						type = attack_submarine_hull_3 #Dolphin II-class
					}
					cost_factor = 0
				}
			}
		}
		USA = {
			create_production_license = {
				target = ISR
				equipment = {
					type = MR_Fighter4 #F-35 Lightning II
				}
				cost_factor = 0
			}
			create_production_license = {
				target = ISR
				equipment = {
					type = transport_plane3 #C-130J Super Hercules
				}
				cost_factor = 0
			}

		}
		else = {
			if = {
				limit = { NOT = { has_dlc = "Man the Guns" } }
				add_equipment_production = {
					equipment = {
						type = diesel_attack_submarine_3 #Dolphin II-class
						version_name = "Dolphin II-class"
						creator = "GER"
					}
					requested_factories = 1
					progress = 0.1
					efficiency = 100
				}
			}
			else = {
				add_equipment_production = {
					equipment = {
						type = attack_submarine_hull_3 #Dolphin II-class
						version_name = "Dolphin II-class"
						creator = "GER"
					}
					requested_factories = 1
					progress = 0.1
					efficiency = 100
				}
			}
			add_equipment_production = {
				equipment = {
					type = MR_Fighter4 #F-35 Lightning II
					creator = "USA"
				}
				requested_factories = 1
				progress = 0.1
				efficiency = 50
			}
			add_equipment_production = {
				equipment = {
					type = transport_plane3 #C-130J Super Hercules
					creator = "USA"
				}
				requested_factories = 1
				progress = 0.1
				efficiency = 50
			}
		}
	}
}