﻿division_template = {
	name = "Infantry Brigade"

	regiments = {
		L_Inf_Bat = { x = 0 y = 0 }
		L_Inf_Bat = { x = 0 y = 1 }
		L_Inf_Bat = { x = 0 y = 2 }
	}
	support = {
		L_Engi_Comp = { x = 0 y = 0 }
	}

	priority = 0
}

division_template = {
	name = "Anti-Terrorist Brigade"

	regiments = {
		Special_Forces = { x = 0 y = 0 }
		Special_Forces = { x = 0 y = 1 }
	}

	priority = 2
}

division_template = {
	name = "NPFL Brigade"

	regiments = {
		Mot_Militia_Bat = { x = 0 y = 0 }
		Mot_Militia_Bat = { x = 0 y = 1 }
		Mot_Militia_Bat = { x = 0 y = 2 }
	}
}

units = {

	division = {
		name = "First Brigade"
		location = 7959
		division_template = "Infantry Brigade"
		start_experience_factor = 0.0
		start_equipment_factor = 0.01
	}

	division = {
		name = "Second Brigade"
		location = 8006
		division_template = "Infantry Brigade"
		start_experience_factor = 0.0
		start_equipment_factor = 0.01
	}

	division = {
		name = "Anti-Terrorist Unit"
		location = 7959
		division_template = "Anti-Terrorist Brigade"
		start_experience_factor = 0.3
		start_equipment_factor = 0.01
	}

	division = {
		name = "1st NPFL Brigade"
		location = 13240
		division_template = "NPFL Brigade"
		start_experience_factor = 0.1
		start_equipment_factor = 0.01
	}

	division = {
		name = "2nd NPFL Brigade"
		location = 13240
		division_template = "NPFL Brigade"
		start_experience_factor = 0.1
		start_equipment_factor = 0.01
	}

	division = {
		name = "3rd NPFL Brigade"
		location = 7959
		division_template = "NPFL Brigade"
		start_experience_factor = 0.1
		start_equipment_factor = 0.01
	}

	division = {
		name = "4th NPFL Brigade"
		location = 13239
		division_template = "NPFL Brigade"
		start_experience_factor = 0.1
		start_equipment_factor = 0.01
	}

	division = {
		name = "5th NPFL Brigade"
		location = 13239
		division_template = "NPFL Brigade"
		start_experience_factor = 0.1
		start_equipment_factor = 0.01
	}

	division = {
		name = "6th NPFL Brigade"
		location = 8006
		division_template = "NPFL Brigade"
		start_experience_factor = 0.1
		start_equipment_factor = 0.01
	}

	division = {
		name = "7th NPFL Brigade"
		location = 13238
		division_template = "NPFL Brigade"
		start_experience_factor = 0.1
		start_equipment_factor = 0.01
	}

	division = {
		name = "8th NPFL Brigade"
		location = 13237
		division_template = "NPFL Brigade"
		start_experience_factor = 0.1
		start_equipment_factor = 0.01
	}
}

instant_effect = {

	add_equipment_to_stockpile = {
		type = infantry_weapons
		amount = 5000
		producer = SOV
	}

	add_equipment_to_stockpile = {
		type = Anti_tank_0
		amount = 50
		producer = SOV
	}

	add_equipment_to_stockpile = {
		type = Anti_Air_0
		amount = 50
		producer = SOV
	}

	add_equipment_to_stockpile = {
		type = command_control_equipment
		amount = 50
		producer = SOV
	}

	add_equipment_to_stockpile = {
		type = util_vehicle_0
		amount = 500
		producer = LIB
	}

}