﻿division_template = {
	name = "Special Mobile Force"
	regiments = {
	  Militia_Bat = { x = 0 y = 0 }
	  Militia_Bat = { x = 0 y = 1 }
	  Militia_Bat = { x = 0 y = 2 }
	  Militia_Bat = { x = 0 y = 3 }
	}
	priority = 1
}

units = {

	division = {
		name = "Special Moblie Forcce"
		location = 13018
		division_template = "Special Mobile Force"
		start_experience_factor = 0.3
		start_equipment_factor = 0.01
	}
}


instant_effect = {

	add_equipment_to_stockpile = {
		type = Anti_Air_0
		amount = 24
		producer = USA
	}

	add_equipment_to_stockpile = {
		type = Anti_tank_0
		amount = 24
		producer = ENG
	}

	add_equipment_to_stockpile = {
		type = infantry_weapons
		amount = 960
		producer = FRA
	}

}