﻿division_template = {
	name = "Infantry Division"

	regiments = {
		L_Inf_Bat = { x = 0 y = 0 }
		L_Inf_Bat = { x = 0 y = 1 }
		L_Inf_Bat = { x = 0 y = 2 }

		L_Inf_Bat = { x = 1 y = 0 }
		L_Inf_Bat = { x = 1 y = 1 }
		L_Inf_Bat = { x = 1 y = 2 }
		L_Inf_Bat = { x = 1 y = 3 }

		L_Inf_Bat = { x = 2 y = 0 }
		L_Inf_Bat = { x = 2 y = 1 }
		L_Inf_Bat = { x = 2 y = 2 }
		L_Inf_Bat = { x = 2 y = 3 }

		Arty_Bat = { x = 3 y = 0 }
		Arty_Bat = { x = 3 y = 1 }
		Arty_Bat = { x = 3 y = 2 }

	}
}
division_template = {
	name = "Marine Brigade"

	regiments = {
		Mot_Marine_Bat = { x = 0 y = 0 }
		Mot_Marine_Bat = { x = 0 y = 1 }

		Mech_Marine_Bat = { x = 1 y = 0 }
		Mech_Marine_Bat = { x = 1 y = 1 }

		Arty_Bat = { x = 2 y = 0 }
	}
	support = {
		armor_Recce_Comp = { x = 0 y = 0 }
		Arm_Recce_Comp = { x = 0 y = 1 }
	}
}
division_template = {
	name = "Special Airborne Regiment"

	regiments = {
		L_Air_assault_Bat = { x = 0 y = 0 }
		L_Air_assault_Bat = { x = 0 y = 1 }
		L_Air_assault_Bat = { x = 0 y = 2 }
		L_Air_assault_Bat = { x = 0 y = 3 }
	}

}

units = {

	### Specialized Forces ###

	division = {
		name = "1st Scout Ranger Regiment"
		location = 10265 #Manilla
		division_template = "Special Airborne Regiment"
		start_experience_factor = 0.5
		start_equipment_factor = 0.01
	}
	division = {
		name = "Special Forces Regiment"
		location = 1388 #Nueva Ecija
		division_template = "Special Airborne Regiment"
		start_experience_factor = 0.5
		start_equipment_factor = 0.01
	}
	### Marine Corps ###
	division = {
		name = "3rd Marine Brigade"
		location = 4429 #Palawan
		division_template = "Marine Brigade"
		start_experience_factor = 0.4
		start_equipment_factor = 0.01
	}
	division = {
		name = "1st Marine Brigade"
		location = 6042 #Moro
		division_template = "Marine Brigade"
		start_experience_factor = 0.4
		start_equipment_factor = 0.01
	}
	division = {
		name = "8th Marine Brigade"
		location = 12118 #Cebu
		division_template = "Marine Brigade"
		start_experience_factor = 0.4
		start_equipment_factor = 0.01
	}

	### Army ###
	division = {
		name = "1st Infantry Division"
		location = 1421
		division_template = "Infantry Division"
		start_experience_factor = 0.2
		start_equipment_factor = 0.01
	}
	division = {
		name = "2nd Infantry Division"
		location = 10236
		division_template = "Infantry Division"
		start_experience_factor = 0.2
		start_equipment_factor = 0.01
	}
	division = {
		name = "3rd Infantry Division"
		location = 7423
		division_template = "Infantry Division"
		start_experience_factor = 0.2
		start_equipment_factor = 0.01
	}
	division = {
		name = "4th Infantry Division"
		location = 10214
		division_template = "Infantry Division"
		start_experience_factor = 0.2
		start_equipment_factor = 0.01
	}
	division = {
		name = "5th Infantry Division"
		location = 7439
		division_template = "Infantry Division"
		start_experience_factor = 0.2
		start_equipment_factor = 0.01
	}
	division = {
		name = "6th Infantry Division"
		location = 6046
		division_template = "Infantry Division"
		start_experience_factor = 0.2
		start_equipment_factor = 0.01
	}
	division = {
		name = "7th Infantry Division"
		location = 10165
		division_template = "Infantry Division"
		start_experience_factor = 0.2
		start_equipment_factor = 0.01
	}
	division = {
		name = "8th Infantry Division"
		location = 1340
		division_template = "Infantry Division"
		start_experience_factor = 0.2
		start_equipment_factor = 0.01
	}

}

instant_effect = {

	add_equipment_to_stockpile = {
		type = infantry_weapons
		amount = 17500
		producer = USA
	}
	add_equipment_to_stockpile = {
		type = command_control_equipment
		amount = 1900
		producer = USA
	}
	add_equipment_to_stockpile = {
		type = Anti_tank_0
		amount = 800
		producer = USA
	}
	add_equipment_to_stockpile = {
		type = Heavy_Anti_tank_1
		amount = 20
		producer = USA
	}
	add_equipment_to_stockpile = {
		type = Anti_Air_0
		amount = 400
		producer = USA
	}

	### Vehicles ###
	add_equipment_to_stockpile = {
		type = Rec_tank_1 #FV101 Scorpion
		amount = 40
		producer = ENG
	}
	add_equipment_to_stockpile = {
		type = Rec_tank_0 #V-150
		amount = 100
		producer = USA
	}
	add_equipment_to_stockpile = {
		type = Rec_tank_1 #LAV-600
		amount = 24
		producer = USA
		#version_name = "LAV-600"
	}
	add_equipment_to_stockpile = {
		type = IFV_2 #YPR-765
		amount = 85
		producer = HOL
	}
	add_equipment_to_stockpile = {
		type = APC_2 #M113 APC
		amount = 100
		producer = USA
	}
	add_equipment_to_stockpile = {
		type = APC_3 #LVTP-7
		amount = 85
		producer = USA
	}
	add_equipment_to_stockpile = {
		type = APC_1 #Chaimite
		amount = 20
		producer = POR
	}
	add_equipment_to_stockpile = {
		type = APC_4 #GKN Simba
		amount = 146
		producer = ENG
	}

	#Artillery
	add_equipment_to_stockpile = {
		type = artillery_0 #M102
		amount = 380
		producer = USA
	}

	add_equipment_to_stockpile = {
		type = transport_helicopter1 #UH-1, B205
		amount = 201
		producer = USA
	}
	add_equipment_to_stockpile = {
		type = transport_helicopter1 #Do-105
		amount = 15
		producer = GER
	}
	add_equipment_to_stockpile = {
		type = MR_Fighter1 #F-5
		amount = 11
		producer = USA
	}

	if = {
		limit = { has_dlc = "Death or Dishonor" }
		USA = {
			create_production_license = {
				target = PHI
				equipment = {
					type = APC_2 #M113 APC
				}
				cost_factor = 0
			}

		}
		else = {
			add_equipment_production = {
				equipment = {
					type = APC_2 #M113 APC
					creator = "USA"
				}
				requested_factories = 1
				progress = 0.2
				efficiency = 50
			}
		}
	}
}