﻿division_template = {
	name = "Infantry Brigade"

	regiments = {
		Mech_Inf_Bat = { x = 0 y = 0 }
		Mech_Inf_Bat = { x = 0 y = 1 }
		Mech_Inf_Bat = { x = 0 y = 2 }
		Arty_Bat = { x = 0 y = 3 }
	}

	support = {
		L_Engi_Comp = { x = 0 y = 0 }
		SP_Arty_Battery = { x = 0 y = 1 }
		Mech_Recce_Comp = { x = 0 y = 2 }
	}
}
division_template = {
	name = "Mountain Brigade"

	regiments = {
		L_Inf_Bat = { x = 0 y = 0 }
		L_Inf_Bat = { x = 0 y = 1 }
		L_Inf_Bat = { x = 0 y = 2 }
		Arty_Bat = { x = 0 y = 3 }
	}

	support = {
		L_Engi_Comp = { x = 0 y = 0 }
		SP_Arty_Battery = { x = 0 y = 1 }
	}
}
division_template = {
	name = "Mechanized Brigade"

	regiments = {
		armor_Bat = { x = 0 y = 0 }
		SP_AA_Bat = { x = 0 y = 1 }
		Arm_Inf_Bat = { x = 1 y = 0 }
		Arm_Inf_Bat = { x = 1 y = 1 }
		Arty_Bat = { x = 1 y = 2 }
	}

	support = {
		L_Engi_Comp = { x = 0 y = 0 }
		SP_Arty_Battery = { x = 0 y = 1 }
		Mech_Recce_Comp = { x = 0 y = 2 }
	}
}
division_template = {
	name = "Brigada Operații Speciale"
	regiments = {
		Special_Forces = { x = 0 y = 0 }
		Special_Forces = { x = 0 y = 1 }
		L_Air_Inf_Bat = { x = 0 y = 2 }
	}

	priority = 2
}

units = {
	division = {
		name = "1st Mechanized Brigade 'Argedava'"
		location = 9617	#Bucharest
		division_template = "Mechanized Brigade"
		start_experience_factor = 0.5
		start_equipment_factor = 0.01
	}

	division = {
		name = "2nd Infantry Brigade"
		location = 9617	#Craiova
		division_template = "Infantry Brigade"
		start_experience_factor = 0.5
		start_equipment_factor = 0.01
	}

	division = {
		name = "2nd Vanatori de Munte Brigade"
		location = 11652 #Brasov
		division_template = "Mountain Brigade"
		start_experience_factor = 0.5
		start_equipment_factor = 0.01
	}

	division = {
		name = "9th Mechanized Brigade 'Marasesti'"
		location = 657	#Constanta
		division_template = "Mechanized Brigade"
		start_experience_factor = 0.5
		start_equipment_factor = 0.01
	}

	division = {
		name = "15th Mechanized Brigade 'Podu Inalt'"
		location = 9716	#Iasi
		division_template = "Mechanized Brigade"
		start_experience_factor = 0.5
		start_equipment_factor = 0.01
	}

	division = {
		name = "282nd Mechanized Brigade 'Unirea Principatelor'"
		location = 9701	#Focșani
		division_template = "Infantry Brigade"
		start_experience_factor = 0.5
		start_equipment_factor = 0.01
	}

	division = {
		name = "18th Mechanized Brigade 'Banat'"
		location = 9606	#Timișoara
		division_template = "Infantry Brigade"
		start_experience_factor = 0.5
		start_equipment_factor = 0.01
	}

	division = {
		name = "61st Vanatori de Munte Brigade"
		location = 9668 #Miercurea Ciuc
		division_template = "Mountain Brigade"
		start_experience_factor = 0.5
		start_equipment_factor = 0.01
	}

	division = {
		name = "81st Mechanized Brigade"
		location = 11676
		division_template = "Infantry Brigade"
		start_experience_factor = 0.5
		start_equipment_factor = 0.01
	}
}

instant_effect = {
	#ATGM 53 9P122, 120 9P133, 54 9P148

	add_equipment_to_stockpile = {
		type = infantry_weapons2			 #Pusca Automata Model 1986
		amount = 4670
		producer = ROM
	}
	add_equipment_to_stockpile = {
		type = command_control_equipment2
		amount = 585
		producer = SOV
	}
	add_equipment_to_stockpile = {
		type = Anti_Air_0			 #CA-94
		amount = 230
		producer = ROM
	}
	add_equipment_to_stockpile = {
		type = Heavy_Anti_tank_0			 #Malyutka
		amount = 30
		producer = SOV
	}

	add_equipment_to_stockpile = {
		type = Heavy_Anti_tank_1			 #Konkurs
		amount = 45
		producer = SOV
	}

	add_equipment_to_stockpile = {
		type = Anti_tank_1			 #Fagot
		amount = 215
		producer = SOV
	}

	add_equipment_to_stockpile = {
		type = L_Strike_fighter2	 #Aero L-39
		amount = 32
		producer = CZE
	}

	add_equipment_to_stockpile = {
		type = mbt_hull_1
		variant_name = "T-55"
		amount = 717
		producer = SOV
	}
	add_equipment_to_stockpile = {
		type = mbt_hull_1
		variant_name = "TR-85M1"
		amount = 314
		producer = ROM
	}
	add_equipment_to_stockpile = {
		type = mbt_hull_1
		variant_name = "TR-85M2"
		amount = 227
		producer = ROM
	}
	add_equipment_to_stockpile = {
		type = APC_1 #BRDM-2
		amount = 4
		producer = SOV
	}
	add_equipment_to_stockpile = {
		type = IFV_3	 #MLI-84
		amount = 177
		producer = ROM
	}
	add_equipment_to_stockpile = {
		type = APC_3	 #TAB-77
		amount = 166
		producer = ROM
	}
	add_equipment_to_stockpile = {
		type = APC_1	 #TAB-71
		amount = 1259
		producer = ROM
	}
	add_equipment_to_stockpile = {
		type = APC_4	 #TAB Zimbru
		amount = 70
		producer = ROM
	}
	add_equipment_to_stockpile = {
		type = artillery_0		 #M81
		amount = 493
		producer = ROM
	}
	add_equipment_to_stockpile = {
		type = artillery_1		 #M85
		amount = 114
		producer = ROM
	}
	add_equipment_to_stockpile = {
		type = SP_arty_1 #Model 89 SPH
		amount = 42
		producer = ROM
	}
	add_equipment_to_stockpile = {
		type = SP_arty_0 #2S1 Gvozdika
		amount = 6
		producer = SOV
		#version_name = "2S1 Gvozdika"
	}
	add_equipment_to_stockpile = {
		type = SP_R_arty_0 #APR-40
		amount = 171
		producer = ROM
	}
	add_equipment_to_stockpile = {
		type = SP_Anti_Air_0			 #SA-6
		amount = 64
		producer = SOV
	}

	add_equipment_to_stockpile = {
		type = MR_Fighter1			 #MiG-21
		amount = 106
		producer = SOV
	}
	add_equipment_to_stockpile = {
		type = transport_plane1 #Antonov An-26
		amount = 86
		producer = UKR
	}
	add_equipment_to_stockpile = {
		type = transport_helicopter1			 #IAR 330
		amount = 41
		producer = ROM
	}
	add_equipment_to_stockpile = {
		type = transport_plane1			 #C-130
		amount = 4
		producer = USA
	}
	add_equipment_to_stockpile = {
		type = transport_helicopter1 #Mil Mi-8
		amount = 3
		producer = SOV
	}
	add_equipment_to_stockpile = {
		type = transport_helicopter1 #Mil Mi-8
		amount = 3
		producer = SOV
	}
	add_equipment_to_stockpile = {
		type = MR_Fighter2 #MiG-29 Fulcrum
		amount = 18
		producer = SOV
	}
	add_equipment_to_stockpile = {
		type = AS_Fighter1 #MiG-23 Flogger
		amount = 28
		producer = SOV
	}
}