﻿division_template = {
	name = "Liwa Mechaniqui"

	regiments = {
		armor_Bat = { x = 0 y = 0 }
		Mech_Inf_Bat = { x = 1 y = 0 }
		Mech_Inf_Bat = { x = 1 y = 1 }
		SP_Arty_Bat = { x = 2 y = 0 }

	}
	support = {
		H_Engi_Comp = { x = 0 y = 0 }
		armor_Recce_Comp = { x = 0 y = 1 }
	}
}
division_template = {
	name = "Liwa Moudar'a"

	regiments = {
		armor_Bat = { x = 0 y = 0 }
		Arm_Inf_Bat = { x = 1 y = 0 }
		Arm_Inf_Bat = { x = 1 y = 1 }
		SP_Arty_Bat = { x = 2 y = 0 }

	}
	support = {
		H_Engi_Comp = { x = 0 y = 0 }
		armor_Recce_Comp = { x = 0 y = 1 }
	}
}
division_template = {
	name = "Liwa Mushat"

	regiments = {
		armor_Bat = { x = 0 y = 0 }
		Mot_Inf_Bat = { x = 1 y = 0 }
		Mot_Inf_Bat = { x = 1 y = 1 }
		SP_Arty_Bat = { x = 2 y = 0 }

	}
	support = {
		H_Engi_Comp = { x = 0 y = 0 }
		armor_Recce_Comp = { x = 0 y = 1 }
	}
}

division_template = {
	name = "Liwa Haris Milkiun"

	regiments = {
		armor_Bat = { x = 0 y = 0 }
		Mech_Inf_Bat = { x = 0 y = 1 }
		Mech_Inf_Bat = { x = 0 y = 2 }
		Mech_Inf_Bat = { x = 1 y = 0 }
		Mech_Inf_Bat = { x = 1 y = 1 }
	}

	support = {
		L_Engi_Comp = { x = 0 y = 0 }
	}

	priority = 2
}

division_template = {
	name = "Special Operations Command"

	regiments = {
		Special_Forces = { x = 0 y = 0 }
	}
	priority = 2
}

division_template = {
	name = "Marine Battalion"

	regiments = {
		L_Marine_Bat = { x = 0 y = 0 }
	}


	priority = 2
}


units = {

	division = {
		name = "1. Liwa Mechaniqui"
		location = 3725
		division_template = "Liwa Mechaniqui"
		start_experience_factor = 0.3
		start_equipment_factor = 0.01
	}
	division = {
		name = "2. Liwa Mechaniqui"
		location = 3689
		division_template = "Liwa Mechaniqui"
		start_experience_factor = 0.3
		start_equipment_factor = 0.01
	}
	division = {
		name = "3. Liwa Mechaniqui"
		location = 3689
		division_template = "Liwa Mechaniqui"
		start_experience_factor = 0.3
		start_equipment_factor = 0.01
	}
	division = {
		name = "1. Liwa Moudar'a"
		location = 3689
		division_template = "Liwa Moudar'a"
		start_experience_factor = 0.3
		start_equipment_factor = 0.01
	}
	division = {
		name = "2. Liwa Moudar'a"
		location = 3585
		division_template = "Liwa Moudar'a"
		start_experience_factor = 0.3
		start_equipment_factor = 0.01
	}
	division = {
		name = "1. Liwa Mushat"
		location = 7960
		division_template = "Liwa Mechaniqui"
		start_experience_factor = 0.3
		start_equipment_factor = 0.01
	}
	division = {
		name = "2. Liwa Mushat"
		location = 7960
		division_template = "Liwa Mechaniqui"
		start_experience_factor = 0.3
		start_equipment_factor = 0.01
	}
	division = {
		name = "Liwa Haris Milkiun"
		location = 3689
		division_template = "Liwa Haris Milkiun"
		start_experience_factor = 0.75
		start_equipment_factor = 0.01
	}
	division = {
		name = "Marine Battalion"
		location = 3689
		division_template = "Marine Battalion"
		start_experience_factor = 0.75
		start_equipment_factor = 0.01
	}
	division = {
		name = "Special Operations Command"
		location = 3689
		division_template = "Special Operations Command"
		start_experience_factor = 0.75
		start_equipment_factor = 0.01
	}
}

instant_effect = {

	add_equipment_to_stockpile = {
		type = infantry_weapons3
		amount = 3250
		producer = USA
	}
	add_equipment_to_stockpile = {
		type = command_control_equipment2
		amount = 500
		producer = USA
	}
	add_equipment_to_stockpile = {
		type = Anti_tank_1
		amount = 140
		producer = USA
	}
	add_equipment_to_stockpile = {
		type = Heavy_Anti_tank_2
		amount = 70
		producer = USA
	}
	add_equipment_to_stockpile = {
		type = Anti_Air_1
		amount = 170
		producer = USA
	}

	add_equipment_to_stockpile = {
		type = MBT_4 #Leclerc
		amount = 250
		producer = FRA
	}
	add_equipment_to_stockpile = {
		type = MBT_3 #OF-40
		amount = 36
		producer = ITA
	}
	add_equipment_to_stockpile = {
		type = MBT_2 #AMX-30
		amount = 45
		producer = FRA
	}
	add_equipment_to_stockpile = {
		type = Rec_tank_1 #FV101 Scorpion
		amount = 76
		producer = ENG
	}
	add_equipment_to_stockpile = {
		type = Rec_tank_0 #Panhard AML/ AML-90
		#version_name = "Panhard AML"
		amount = 49
		producer = FRA
	}
	add_equipment_to_stockpile = {
		type = IFV_2 #AMX-10
		amount = 18
		producer = FRA
	}
	add_equipment_to_stockpile = {
		type = IFV_4 #BMP-3
		amount = 415
		producer = SOV
	}
	add_equipment_to_stockpile = {
		type = APC_1 #M3 Panhard
		amount = 370
		producer = FRA
	}
	add_equipment_to_stockpile = {
		type = APC_2 #EE-11
		amount = 120
		producer = BRA
	}
	add_equipment_to_stockpile = {
		type = artillery_0 #type-59
		amount = 20
		producer = CHI
	}
	add_equipment_to_stockpile = {
		type = SP_arty_1 #G6 SP Arty
		amount = 72
		producer = SAF
	}
	add_equipment_to_stockpile = {
		type = SP_arty_1 #M109A3
		#version_name = M109A3
		amount = 87
		producer = USA
	}
	add_equipment_to_stockpile = {
		type = SP_arty_0 #Mk F3 155mm
		amount = 18
		producer = FRA
	}


	add_equipment_to_stockpile = {
		type = MR_Fighter2 #Mirage 2000
		amount = 31
		producer = FRA
	}
	add_equipment_to_stockpile = {
		type = transport_plane1 #C130-H
		amount = 4
		producer = USA
	}
	add_equipment_to_stockpile = {
		type = transport_plane2 #C-212 Aviocar
		amount = 4
		producer = SPR
	}
	add_equipment_to_stockpile = {
		type = attack_helicopter2 #AH-64
		amount = 20
		producer = USA
	}
	add_equipment_to_stockpile = {
		type = transport_helicopter1 #Aérospatiale SA-330 Puma
		amount = 13
		producer = FRA
	}
	add_equipment_to_stockpile = {
		type = transport_helicopter1 #Bell UH-1 Iroquois
		amount = 27
		producer = USA
	}

}