﻿division_template = {
	name = "Armored Brigade"

	regiments = {
		armor_Bat = { x = 0 y = 0 }
		L_arm_Bat = { x = 0 y = 1 }
		Mech_Inf_Bat = { x = 1 y = 0 }
	}
	support = {
		SP_Arty_Battery = { x = 0 y = 0 }
	}
}
division_template = {
	name = "Infantry Brigade"

	regiments = {
		L_Inf_Bat = { x = 0 y = 0 }
		L_Inf_Bat = { x = 0 y = 1 }
		L_Inf_Bat = { x = 0 y = 2 }
	}
}

units = {

	division = {
		name = "50th Armored Brigade"
		location = 12989
		division_template = "Armored Brigade"
		start_experience_factor = 0.1
		start_equipment_factor = 0.01
	}
	division = {
		name = "8th Armored Brigade"
		location = 8223
		division_template = "Armored Brigade"
		start_experience_factor = 0.1
		start_equipment_factor = 0.01
	}
	division = {
		name = "74th Infantry Brigade"
		location = 6463
		division_template = "Infantry Brigade"
		start_experience_factor = 0.1
		start_equipment_factor = 0.01
	}
	division = {
		name = "50th Infantry Brigade"
		location = 10440
		division_template = "Infantry Brigade"
		start_experience_factor = 0.1
		start_equipment_factor = 0.01
	}
	division = {
		name = "23rd Infantry Brigade"
		location = 3854
		division_template = "Infantry Brigade"
		start_experience_factor = 0.1
		start_equipment_factor = 0.01
	}
	division = {
		name = "15th Infantry Brigade"
		location = 6566
		division_template = "Infantry Brigade"
		start_experience_factor = 0.1
		start_equipment_factor = 0.01
	}
	division = {
		name = "32nd Infantry Brigade"
		location = 6561
		division_template = "Infantry Brigade"
		start_experience_factor = 0.1
		start_equipment_factor = 0.01
	}
	division = {
		name = "46th Infantry Brigade"
		location = 12989
		division_template = "Infantry Brigade"
		start_experience_factor = 0.1
		start_equipment_factor = 0.01
	}
	division = {
		name = "28th Infantry Brigade"
		location = 7088
		division_template = "Infantry Brigade"
		start_experience_factor = 0.1
		start_equipment_factor = 0.01
	}
	division = {
		name = "84th Infantry Brigade"
		location = 12929
		division_template = "Infantry Brigade"
		start_experience_factor = 0.1
		start_equipment_factor = 0.01
	}
	division = {
		name = "68th Infantry Brigade"
		location = 7133
		division_template = "Infantry Brigade"
		start_experience_factor = 0.1
		start_equipment_factor = 0.01
	}
	division = {
		name = "13th Infantry Brigade"
		location = 6678
		division_template = "Infantry Brigade"
		start_experience_factor = 0.1
		start_equipment_factor = 0.01
	}
	division = {
		name = "86th Infantry Brigade"
		location = 8223
		division_template = "Infantry Brigade"
		start_experience_factor = 0.1
		start_equipment_factor = 0.01
	}
	division = {
		name = "72nd Infantry Brigade"
		location = 12929
		division_template = "Infantry Brigade"
		start_experience_factor = 0.1
		start_equipment_factor = 0.01
	}

}



instant_effect = {

	add_equipment_to_stockpile = {
		type = infantry_weapons
		amount = 6000
		producer = SOV
	}
	add_equipment_to_stockpile = {
		type = command_control_equipment
		amount = 650
		producer = SOV
	}
		add_equipment_to_stockpile = {
		type = Anti_tank_1
		amount = 300
		producer = SOV
	}
	add_equipment_to_stockpile = {
		type = Heavy_Anti_tank_1
		amount = 30
		producer = SOV
	}
	add_equipment_to_stockpile = {
		type = Anti_Air_1
		amount = 250
		producer = SOV
	}

	add_equipment_to_stockpile = {
		type = MBT_1 #T-54/55
		amount = 140
		producer = SOV
	}
	add_equipment_to_stockpile = {
		type = Rec_tank_0 #PT-76
		amount = 10
		producer = SOV
	}
	add_equipment_to_stockpile = {
		type = Rec_tank_0 #Eland Mk7
		amount = 40
		producer = SAF
	}
	add_equipment_to_stockpile = {
		type = Rec_tank_0 #Ferret
		amount = 60
		producer = ENG
	}
	add_equipment_to_stockpile = {
		type = APC_1 #BTR-60
		amount = 12
		producer = SOV
	}
	add_equipment_to_stockpile = {
		type = APC_1 #OT-64
		amount = 4
		producer = CZE
	}
	add_equipment_to_stockpile = {
		type = APC_2 #Buffel
		amount = 20
		producer = SAF
	}
	add_equipment_to_stockpile = {
		type = SP_R_arty_0 #BM-21 Grad
		amount = 20
		producer = SOV
	}
}