﻿
###### Divison Templates ######

division_template = {
	name = "Salman Decisiveness Brigade"
	regiments = {
	  Mot_Inf_Bat = { x = 0 y = 0 }
	   Mot_Inf_Bat = { x = 0 y = 1 }
	}
	support = {
	   Mech_Recce_Comp = { x = 0 y = 0 }
	}
		priority = 2
}

division_template = {
	name = "Storm Brigade"
	regiments = {
	  Mot_Inf_Bat = { x = 0 y = 0 }
	}
	support = {
	   Mech_Recce_Comp = { x = 0 y = 0 }
	}
		priority = 2
}

division_template = {
	name = "Infantry Brigade"
	regiments = {
	  Mot_Inf_Bat = { x = 0 y = 0 }
	}
	support = {
	   armor_Comp = { x = 0 y = 0 }
	}
		priority = 1
}

division_template = {
	name = "Armored Brigade"
	regiments = {
	  armor_Bat = { x = 0 y = 0 }
	}
	support = {
	   H_Engi_Comp = { x = 0 y = 0 }
	}
		priority = 1
}

division_template = {
	name = "Missile Brigade"
	regiments = {
	  SP_AA_Bat = { x = 0 y = 0 }
	   SP_Arty_Bat = { x = 1 y = 0 }
	}
		priority = 1
}

division_template = {
	name = "Naval Infantry Brigade"
	regiments = {
	  Mot_Marine_Bat = { x = 0 y = 0 }
	}
		priority = 1
}

division_template = {
	name = "Militia"
	regiments = {
	  Militia_Bat = { x = 0 y = 0 }
	}
		priority = 1
}

###### Initial Deployment ######

units = {

 ### Elite ###

	division = {
		name = "1st Salman Decisiveness Brigade"
		location = 9162 #Ma'rib
		division_template = "Salman Decisiveness Brigade"
		start_experience_factor = 0.1
		start_equipment_factor = 0.01
	}

	division = {
		name = "1st Storm Brigade"
		location = 5074 #West of Aden
		division_template = "Storm Brigade"
		start_experience_factor = 0.1
		start_equipment_factor = 0.01
	}

 ### Infantry ###

	division = {
		name = "135th Infantry Brigade"
		location = 9181 #al Mahrah
		division_template = "Infantry Brigade"
		start_experience_factor = 0.1
		start_equipment_factor = 0.01
	}

	division = {
		name = "13th Infantry Brigade"
		location = 9162 #Ma'rib
		division_template = "Infantry Brigade"
		start_experience_factor = 0.1
		start_equipment_factor = 0.01
	}

	division = {
		name = "19th Infantry Brigade"
		location = 9182 #North of Ma'rib
		division_template = "Infantry Brigade"
		start_experience_factor = 0.1
		start_equipment_factor = 0.01
	}

	division = {
		name = "15th Infantry Brigade"
		location = 9192 #North of Ahwar
		division_template = "Infantry Brigade"
		start_experience_factor = 0.1
		start_equipment_factor = 0.01
	}

	division = {
		name = "17th Infantry Brigade"
		location = 5074 #West of Aden
		division_template = "Infantry Brigade"
		start_experience_factor = 0.1
		start_equipment_factor = 0.01
	}

	division = {
		name = "107th Infantry Brigade"
		location = 9182 #North of Ma'rib
		division_template = "Infantry Brigade"
		start_experience_factor = 0.1
		start_equipment_factor = 0.01
	}

	division = {
		name = "119th Infantry Brigade"
		location = 9158 #East of Ataq
		division_template = "Infantry Brigade"
		start_experience_factor = 0.1
		start_equipment_factor = 0.01
	}

	division = {
		name = "2nd Naval Infantry Brigade"
		location = 8000 #Socotra
		division_template = "Naval Infantry Brigade"
		start_experience_factor = 0.1
		start_equipment_factor = 0.01
	}

	division = {
		name = "78th Infantry Brigade"
		location = 9138 #Aden
		division_template = "Infantry Brigade"
		start_experience_factor = 0.1
		start_equipment_factor = 0.01
	}

 ### Armor ###

	division = {
		name = "111th Armored Brigade"
		location = 9141 #Balhaf
		division_template = "Armored Brigade"
		start_experience_factor = 0.1
		start_equipment_factor = 0.01
	}

	division = {
		name = "37th Armored Brigade"
		location = 9181 #al Mahrah
		division_template = "Armored Brigade"
		start_experience_factor = 0.1
		start_equipment_factor = 0.01
	}

	division = {
		name = "31st Armored Brigade"
		location = 9158 #East of Ataq
		division_template = "Armored Brigade"
		start_experience_factor = 0.1
		start_equipment_factor = 0.01
	}

	division = {
		name = "14th Armored Brigade"
		location = 4976 #East of Ma'rib
		division_template = "Armored Brigade"
		start_experience_factor = 0.1
		start_equipment_factor = 0.01
	}

	division = {
		name = "24th Armored Brigade"
		location = 9138 #Aden
		division_template = "Armored Brigade"
		start_experience_factor = 0.1
		start_equipment_factor = 0.01
	}

 ### Missiles ###

	division = {
		name = "8th Missile Brigade"
		location = 9162 #Sheba Airfield
		division_template = "Missile Brigade"
		start_experience_factor = 0.1
		start_equipment_factor = 0.01
	}

	division = {
		name = "5th Missile Brigade"
		location = 9138 #Aden Airfield
		division_template = "Missile Brigade"
		start_experience_factor = 0.1
		start_equipment_factor = 0.01
	}

 ### Militia ###

	division = {
		name = "1st Aden Militia"
		location = 9138 #Aden
		division_template = "Militia"
		start_experience_factor = 0.1
		start_equipment_factor = 0.01
	}

	division = {
		name = "2nd Aden Militia"
		location = 9138 #Aden
		division_template = "Militia"
		start_experience_factor = 0.1
		start_equipment_factor = 0.01
	}

	division = {
		name = "1st Ma'rib Militia"
		location = 9162 #Ma'rib
		division_template = "Militia"
		start_experience_factor = 0.1
		start_equipment_factor = 0.01
	}

	division = {
		name = "1st Ataq Militia"
		location = 9158 #Ataq
		division_template = "Militia"
		start_experience_factor = 0.1
		start_equipment_factor = 0.01
	}

	division = {
		name = "1st Balhaf Militia"
		location = 9176 #Balhaf
		division_template = "Militia"
		start_experience_factor = 0.1
		start_equipment_factor = 0.01
	}

	division = {
		name = "1st Al Ghaydah Militia"
		location = 9201 #Al Ghaydah
		division_template = "Militia"
		start_experience_factor = 0.1
		start_equipment_factor = 0.01
	}

}

###### Navy ######

instant_effect = {

	add_equipment_to_stockpile = {
		type = APC_1
		amount = 30
		producer = SOV
	}

	add_equipment_to_stockpile = {
		type = command_control_equipment
		amount = 400
		producer = SOV
	}

	add_equipment_to_stockpile = {
		type = Anti_Air_0
		amount = 150
		producer = SOV
	}

	add_equipment_to_stockpile = {
		type = SP_Anti_Air_0
		amount = 50
		producer = SOV
	}

	add_equipment_to_stockpile = {
		type = Anti_tank_0
		amount = 150
		producer = SOV
	}

	add_equipment_to_stockpile = {
		type = Heavy_Anti_tank_0
		amount = 80
		producer = SOV
	}

	add_equipment_to_stockpile = {
		type = SP_R_arty_0
		amount = 50
		producer = SOV
	}

	add_equipment_to_stockpile = {
		type = infantry_weapons
		amount = 4000
		producer = SOV
	}

	add_equipment_to_stockpile = {
		type = L_Strike_fighter2	 #Aero L-39
		amount = 19
		producer = CZE
	}

	add_equipment_to_stockpile = {
		type = mbt_hull_0		#T-62
		variant_name = "T-62"
		amount = 300
		producer = SOV
	}

	add_equipment_to_stockpile = {
		type = util_vehicle_0
		amount = 700
		producer = SOV
	}

}